<!-- ======================================================================
--- Menu system
order:          10
text:           Tutorials
hidden:         true
umbel:          false
======================================================================= -->
